<?xml version="1.0" encoding="UTF-8" standalone="no"?>
<svg
   xmlns:dc="http://purl.org/dc/elements/1.1/"
   xmlns:cc="http://creativecommons.org/ns#"
   xmlns:rdf="http://www.w3.org/1999/02/22-rdf-syntax-ns#"
   xmlns:svg="http://www.w3.org/2000/svg"
   xmlns="http://www.w3.org/2000/svg"
   xmlns:sodipodi="http://sodipodi.sourceforge.net/DTD/sodipodi-0.dtd"
   xmlns:inkscape="http://www.inkscape.org/namespaces/inkscape"
   width="83.094971mm"
   height="79.818878mm"
   viewBox="0 0 83.094971 79.818878"
   version="1.1"
   id="svg668"
   inkscape:version="1.0.2 (e86c870879, 2021-01-15)"
   sodipodi:docname="logo-rlab-blanco.svg">
  <defs
     id="defs662" />
  <sodipodi:namedview
     id="base"
     pagecolor="#ffffff"
     bordercolor="#666666"
     borderopacity="1.0"
     inkscape:pageopacity="0.0"
     inkscape:pageshadow="2"
     inkscape:zoom="0.35"
     inkscape:cx="-525.82726"
     inkscape:cy="179.41026"
     inkscape:document-units="mm"
     inkscape:current-layer="layer1"
     inkscape:document-rotation="0"
     showgrid="false"
     inkscape:window-width="1366"
     inkscape:window-height="740"
     inkscape:window-x="0"
     inkscape:window-y="0"
     inkscape:window-maximized="1" />
  <metadata
     id="metadata665">
    <rdf:RDF>
      <cc:Work
         rdf:about="">
        <dc:format>image/svg+xml</dc:format>
        <dc:type
           rdf:resource="http://purl.org/dc/dcmitype/StillImage" />
        <dc:title></dc:title>
      </cc:Work>
    </rdf:RDF>
  </metadata>
  <g
     inkscape:label="Layer 1"
     inkscape:groupmode="layer"
     id="layer1"
     transform="translate(-85.45251,-100.6977)">
    <path
       inkscape:connector-curvature="0"
       id="path1380-3"
       d="m 160.51377,180.4151 c 0.19675,-0.0513 0.46971,-0.0479 0.60661,0.008 0.1369,0.0554 -0.024,0.0973 -0.3577,0.0932 -0.33364,-0.004 -0.44565,-0.0494 -0.24891,-0.10071 z m -74.52323,-0.73126 -0.53803,-0.7054 0.53449,-0.77869 c 0.29397,-0.42828 1.29291,-2.37104 2.21985,-4.31725 0.92695,-1.9462 1.91957,-3.9935 2.20586,-4.54957 0.28628,-0.55607 1.74666,-3.46778 3.24527,-6.47051 1.49863,-3.00271 3.09832,-6.18741 3.55487,-7.07711 0.45654,-0.8897 2.08175,-4.11231 3.61156,-7.16136 l 2.78146,-5.54373 -0.89273,-1.65111 c -0.49101,-0.90811 -0.89273,-1.80483 -0.89273,-1.99269 0,-0.18788 -0.33303,-1.18131 -0.74005,-2.20762 -0.49166,-1.23971 -0.74692,-2.2197 -0.76053,-2.91974 -0.0112,-0.57956 -0.1332,-1.16645 -0.27097,-1.30421 -0.35676,-0.35677 -0.31879,-2.18545 0.0539,-2.59731 0.24743,-0.2734 0.26163,-0.45918 0.0758,-0.99224 -0.33962,-0.9742 0.0164,-3.06803 0.77669,-4.56711 0.16919,-0.33363 0.76796,-1.51651 1.3306,-2.62863 0.83722,-1.65489 1.37432,-2.39074 2.95795,-4.05261 1.06422,-1.11681 2.48091,-2.64934 3.14818,-3.4056 1.39482,-1.58085 2.37147,-2.29241 4.29483,-3.12909 2.24969,-0.97863 3.2881,-1.26921 5.3823,-1.50614 l 1.9934,-0.22554 1.97129,-4.05177 c 1.08421,-2.22849 2.0733,-4.30202 2.19797,-4.60786 0.23993,-0.58847 0.61593,-0.69127 1.26258,-0.34519 0.21671,0.11597 0.99334,1.41261 1.72582,2.88141 0.73251,1.46879 1.56715,2.92075 1.85478,3.22658 0.47688,0.50708 0.65165,0.55606 1.98436,0.55606 1.14189,0 1.82992,0.13806 3.14687,0.63138 1.47143,0.55121 1.84865,0.80156 2.97059,1.97149 1.71809,1.79156 2.13393,2.62584 1.96051,3.93318 -0.19115,1.44098 -0.96432,3.21249 -2.02511,4.63999 -0.50448,0.67886 -0.91723,1.34224 -0.91723,1.47416 0,0.13193 0.24911,0.68355 0.55356,1.22581 0.30447,0.54227 0.70615,1.25892 0.89263,1.59255 0.18648,0.33364 1.16781,2.25796 2.18074,4.27625 1.01293,2.01831 2.20571,4.2021 2.65063,4.85289 0.44492,0.65078 0.94789,1.65449 1.11774,2.23047 0.16983,0.57599 0.47333,1.25843 0.67444,1.51653 0.61768,0.79279 1.02942,1.73487 1.02942,2.3554 0,0.32555 0.13648,0.70518 0.30329,0.84362 0.16683,0.13845 0.30331,0.36593 0.30331,0.50551 0,0.13958 0.13649,0.36706 0.30331,0.50551 0.16682,0.13845 0.30331,0.46353 0.30331,0.72242 0,0.25889 0.11872,0.54346 0.26384,0.63241 0.14511,0.0889 0.471,0.50291 0.72419,0.91995 0.25321,0.41705 0.53281,0.75827 0.62134,0.75827 0.0885,0 0.73016,1.11465 1.42582,2.47699 0.69569,1.36235 1.33406,2.56799 1.41863,2.6792 0.29428,0.387 1.75748,3.03485 2.64815,4.79218 0.20855,0.41145 0.49795,0.82092 0.64313,0.90991 0.14517,0.089 0.47411,0.65776 0.73097,1.26394 0.25685,0.60616 0.70686,1.45923 1,1.8957 0.94181,1.40226 5.2782,8.76193 5.9182,10.04428 0.13876,0.27803 0.95203,1.68839 1.80725,3.13414 0.85522,1.44576 1.98554,3.36735 2.51182,4.27022 0.70227,1.2048 1.13911,1.72847 1.64184,1.96821 0.37674,0.17966 0.68498,0.41261 0.68498,0.51768 0,0.27072 -0.58935,0.82652 -0.87641,0.82652 -0.1325,0 -0.33074,0.20473 -0.44052,0.45497 -0.19209,0.43784 -0.34407,0.46255 -4.04146,0.65716 -2.11303,0.11121 -3.97835,0.28993 -4.14516,0.39717 -0.25945,0.16676 -4.30182,0.32112 -8.08815,0.30882 -2.94149,-0.01 -9.96485,-0.36084 -11.24442,-0.56241 -1.6405,-0.25844 -9.45358,-0.0171 -13.01998,0.40206 -2.31463,0.27208 -5.36057,0.29512 -7.58263,0.0573 -1.34396,-0.14381 -4.03365,0.0476 -7.54319,0.53654 -1.12341,0.15654 -1.54867,0.14643 -1.77598,-0.0423 -0.22823,-0.18941 -1.45636,-0.21563 -5.19562,-0.11089 -2.6932,0.0755 -7.85968,0.18819 -11.48107,0.25063 l -6.58434,0.11347 z m 68.80715,-1.35286 c 0,-0.11121 -0.182,-0.2022 -0.40442,-0.2022 -0.22241,0 -0.4044,0.091 -0.4044,0.2022 0,0.11122 0.18199,0.2022 0.4044,0.2022 0.22242,0 0.40442,-0.091 0.40442,-0.2022 z m -56.71804,-0.29486 c 0.66726,-0.049 2.89655,-0.0956 4.95398,-0.10362 2.05741,-0.008 4.6891,-0.0903 5.84819,-0.18291 2.35168,-0.18781 2.12341,-0.0427 3.55427,-2.25854 2.17661,-3.37069 2.30687,-3.63727 2.82231,-5.77618 0.28272,-1.17317 0.51404,-2.57903 0.51404,-3.12412 0,-0.54509 0.10833,-1.62282 0.24073,-2.39495 0.37326,-2.17667 -0.24177,-4.61827 -1.73654,-6.89397 -0.25567,-0.38923 -0.81038,-1.25365 -1.23269,-1.92093 -0.42231,-0.66727 -1.01679,-1.4862 -1.32108,-1.81982 -0.30428,-0.33364 -0.80525,-1.01608 -1.11327,-1.51653 -0.30801,-0.50046 -1.57073,-2.13831 -2.80604,-3.63966 -1.23531,-1.50136 -2.5592,-3.12988 -2.94197,-3.61893 -0.38278,-0.48906 -0.73178,-0.78172 -0.77556,-0.65037 -0.0438,0.13135 0.0192,0.35801 0.1402,0.50369 0.16013,0.19293 0.13414,0.55339 -0.0957,1.32724 -0.31279,1.05329 -3.74943,8.07945 -4.69452,9.59792 -0.67198,1.07963 -5.85778,11.32132 -6.31325,12.46833 -0.20182,0.50825 -0.97514,2.19161 -1.71848,3.74077 -1.64853,3.4356 -2.52491,5.5708 -2.52491,6.15163 v 0.43674 l 3.99352,-0.1184 c 2.19642,-0.0651 4.53946,-0.15844 5.20674,-0.20739 z m 23.85998,-0.73349 c 2.11304,-0.11028 4.61468,-0.21975 5.55922,-0.24325 l 1.71733,-0.0427 0.13838,-1.01101 c 0.0761,-0.55607 0.31838,-1.61767 0.53839,-2.35914 0.79761,-2.68817 0.93556,-4.6103 0.56356,-7.85213 -0.18504,-1.61258 -0.46557,-3.34142 -0.6234,-3.84187 -1.60864,-5.10084 -4.07993,-8.75957 -8.43655,-12.49022 -1.73121,-1.48247 -4.49941,-3.57013 -6.40394,-4.82962 -1.58539,-1.04841 -2.57783,-2.00528 -3.81517,-3.67841 -1.42714,-1.92979 -2.00336,-3.5106 -2.46948,-6.7749 -0.39422,-2.76078 -0.39512,-3.08816 -0.0179,-6.60142 0.39812,-3.70709 0.54324,-4.19174 1.58033,-5.27729 0.50912,-0.5329 1.00371,-0.92066 1.09911,-0.86171 0.0954,0.0589 0.55636,-0.17661 1.02436,-0.52347 0.46802,-0.34687 1.45289,-1.07629 2.18859,-1.62094 1.27388,-0.94307 1.42003,-1.14274 3.06609,-4.1888 0.95064,-1.75922 1.75906,-3.38053 1.7965,-3.60296 0.0643,-0.38162 -0.0287,-0.40118 -1.65067,-0.3472 -1.1319,0.0376 -1.99488,0.18366 -2.52754,0.4276 -0.44483,0.20372 -1.23101,0.52291 -1.74704,0.70929 -1.30012,0.46962 -2.5598,1.34199 -4.38136,3.03427 -0.85544,0.79473 -2.0182,1.82512 -2.58396,2.28975 -1.51802,1.24675 -4.12691,5.313 -4.44523,6.92841 -0.0767,0.38924 -0.20639,0.7987 -0.28821,0.90991 -0.0818,0.11122 -0.26068,1.4761 -0.39746,3.03306 -0.21567,2.45492 -0.20579,3.07473 0.0744,4.66747 0.30479,1.73266 2.15206,7.37201 2.59424,7.91969 0.25527,0.31617 0.55896,0.3277 0.55896,0.0212 0,-0.30955 1.07039,-1.99188 1.26763,-1.99234 0.24957,-7.1e-4 -0.065,1.02437 -0.67448,2.19825 -0.45642,0.87894 -0.52651,1.18562 -0.36694,1.6053 0.22705,0.59717 1.45371,2.29358 3.26533,4.51574 0.69313,0.85022 1.87879,2.30609 2.63478,3.23526 0.756,0.92917 1.64816,2.16419 1.98259,2.74447 0.33443,0.58027 1.1085,1.70276 1.72015,2.49438 1.26916,1.64263 1.67412,2.464 2.3374,4.7409 0.38655,1.32685 0.47118,2.09014 0.47089,4.24628 -7.2e-4,4.01591 -0.6767,5.99763 -3.46438,10.15413 -0.83668,1.24752 -1.46594,2.35769 -1.39835,2.46705 0.12908,0.20885 2.65573,0.15493 9.51377,-0.20302 z m -10.00906,-56.80181 c 0,-0.11121 0.091,-0.2022 0.20221,-0.2022 0.11121,0 0.20221,0.091 0.20221,0.2022 0,0.11121 -0.091,0.20221 -0.20221,0.20221 -0.11122,0 -0.20221,-0.091 -0.20221,-0.20221 z m 25.15716,56.30042 c 1.76995,-0.0579 3.28614,-0.14735 3.36931,-0.19874 0.0832,-0.0514 0.21109,-0.44792 0.28429,-0.8811 0.0978,-0.57911 0.0298,-0.99371 -0.25715,-1.56602 -0.44903,-0.89572 -0.7444,-2.82338 -0.72343,-4.72135 0.0167,-1.50883 0.61819,-3.13454 1.41666,-3.82881 0.38331,-0.33327 0.4779,-0.56973 0.39371,-0.98412 -0.0609,-0.3 -0.20351,-1.48661 -0.31678,-2.63693 -0.11328,-1.15031 -0.25695,-2.17396 -0.31926,-2.27479 -0.0623,-0.10081 -0.40365,-0.18365 -0.75853,-0.18406 -0.75823,-7.2e-4 -1.81667,-0.59604 -2.22903,-1.25336 -0.2381,-0.37956 -0.74153,-2.98151 -0.74153,-3.83259 0,-0.11952 0.37383,-0.559 0.83072,-0.97666 0.64583,-0.59033 0.80068,-0.85405 0.69568,-1.18483 -0.28413,-0.89526 -1.76271,-2.83099 -2.95352,-3.86672 -1.16328,-1.0118 -1.30434,-1.07779 -2.23336,-1.0449 -1.70716,0.0605 -2.89335,-0.76797 -3.71786,-2.59641 -0.36817,-0.81646 -0.37032,-0.88934 -0.0431,-1.45939 0.18939,-0.33002 0.34437,-0.68261 0.34437,-0.78354 0,-0.2807 -2.45964,-2.00796 -2.85938,-2.00796 -0.19361,0 -0.40825,0.091 -0.47698,0.2022 -0.20055,0.32449 -1.42871,0.23392 -2.53659,-0.18704 -1.12297,-0.4267 -2.82181,-1.70727 -2.82181,-2.12708 0,-0.14574 -0.13983,-0.38107 -0.31076,-0.52292 -0.17091,-0.14186 -0.28466,-0.44463 -0.25276,-0.67283 0.0807,-0.57673 -1.28691,-1.34504 -2.14794,-1.20674 -1.06015,0.17029 -2.80398,-0.62386 -3.65773,-1.66575 -0.40888,-0.49899 -1.22869,-1.21767 -1.8218,-1.59707 -0.6846,-0.43794 -1.2768,-1.02843 -1.62179,-1.6171 -0.29888,-0.51 -0.71553,-1.01939 -0.92591,-1.13198 -0.23819,-0.12748 -0.38249,-0.42269 -0.38249,-0.78257 0,-0.58662 -0.51476,-0.99606 -0.84149,-0.66931 -0.36817,0.36817 -0.11567,3.8091 0.3108,4.23557 0.0767,0.0767 0.5232,0.11813 0.99223,0.092 0.7832,-0.0435 0.93066,0.0341 1.80717,0.94995 0.92548,0.96714 0.95608,1.03888 1.01101,2.36986 0.0535,1.29642 0.0272,1.38935 -0.47384,1.67566 -0.47674,0.27241 -0.62311,0.26774 -1.44478,-0.0461 -0.77799,-0.29712 -0.97392,-0.4911 -1.31403,-1.30102 -0.21985,-0.52351 -0.45859,-1.20206 -0.53055,-1.50789 -0.072,-0.30583 -0.22995,-0.55606 -0.3511,-0.55606 -0.23134,0 -0.18345,0.29396 0.35141,2.15706 0.60286,2.09983 3.45295,5.74415 5.66376,7.24204 1.55323,1.05237 3.8117,2.67552 4.37918,3.14731 0.37746,0.3138 3.28741,2.8002 4.48486,3.83207 0.8278,0.71331 2.99154,3.44577 3.76279,4.75177 0.45973,0.77848 1.01277,1.66744 1.22898,1.97546 0.89986,1.28194 2.20008,6.73458 2.32553,9.75234 0.0834,2.00834 -0.072,3.14648 -1.04362,7.63766 -0.47797,2.20934 -0.4515,2.24444 1.57295,2.08728 0.91599,-0.071 3.11358,-0.17668 4.88354,-0.2346 z m -3.61077,-3.07039 c -0.39679,-0.41704 -0.79897,-1.03338 -0.8937,-1.36965 -0.25167,-0.89316 0.12032,-3.06059 0.74562,-4.34442 0.50103,-1.02873 0.59759,-1.11496 1.31447,-1.17396 1.43048,-0.11774 2.37076,1.02624 2.73299,3.32506 0.26578,1.6866 0.10375,2.36279 -0.81667,3.40844 -0.69118,0.78523 -0.91233,0.91279 -1.58237,0.91279 -0.63699,0 -0.91032,-0.13813 -1.50034,-0.75826 z m 2.48985,-1.13138 c 0.41848,-0.50425 0.48397,-1.46424 0.14464,-2.12041 -0.67289,-1.30122 -1.56451,-1.18839 -1.51223,0.19136 0.0143,0.37651 -0.0373,0.87571 -0.11477,1.10936 -0.26441,0.79827 0.94509,1.46706 1.48236,0.81969 z m -0.27735,-3.97425 c 0.0688,-0.11121 -0.0223,-0.2022 -0.2022,-0.2022 -0.17995,0 -0.27093,0.091 -0.20221,0.2022 0.0688,0.11121 0.15973,0.2022 0.20221,0.2022 0.0424,0 0.13347,-0.091 0.2022,-0.2022 z m -2.52755,-6.48603 c -0.85283,-0.49479 -1.52676,-1.47693 -2.04288,-2.97707 -0.74882,-2.17647 -0.38369,-3.27571 1.0881,-3.27571 0.8675,0 1.70696,0.76663 2.48352,2.26807 0.65671,1.26965 0.70372,3.38542 0.0889,4.00024 -0.5028,0.50279 -0.72806,0.50063 -1.61765,-0.0155 z m 1.21324,-1.23634 c 0,-0.26081 -0.53581,-0.18922 -0.77926,0.10411 -0.16256,0.1959 -0.15637,0.33345 0.0231,0.51292 0.19219,0.19218 0.30051,0.16966 0.50071,-0.10412 0.1405,-0.19215 0.25545,-0.42296 0.25545,-0.51291 z m -0.60661,-1.52302 c 0,-0.6748 -0.47494,-1.70705 -1.00138,-2.17641 -0.44428,-0.39611 -0.45456,-0.39629 -0.73562,-0.0119 -0.15677,0.2144 -0.28504,0.55892 -0.28504,0.76561 0,0.48285 0.53417,1.53917 1.08004,2.13579 0.39889,0.43594 0.44263,0.44317 0.68407,0.113 0.14186,-0.19399 0.25793,-0.56574 0.25793,-0.82609 z m -7.51144,-7.83161 c -1.8021,-1.22455 -2.51512,-3.23273 -1.57304,-4.43038 0.50134,-0.63735 0.7678,-0.6576 1.79015,-0.13602 1.8763,0.9572 2.99025,3.61087 2.01107,4.7907 -0.35461,0.42729 -1.42835,0.3192 -2.22818,-0.2243 z m 1.60098,-0.92776 c 0.10279,-0.53374 -1.13052,-2.16341 -1.8188,-2.40334 -0.96436,-0.33618 -1.09387,7.1e-4 -0.44434,1.15638 0.79349,1.41158 2.09348,2.12785 2.26314,1.24696 z m -9.46256,-5.59793 c -0.67555,-0.47197 -1.41238,-1.35819 -1.98801,-2.39103 l -0.47703,-0.85596 0.46968,-0.63528 c 0.76082,-1.02906 1.54012,-1.03327 2.72646,-0.0146 0.82169,0.70547 1.9031,2.22937 1.9031,2.68177 0,0.44151 -0.36819,1.1966 -0.68742,1.40976 -0.39881,0.26628 -1.43547,0.16269 -1.94678,-0.19455 z m 1.18199,-1.6133 c -0.0854,-0.4435 -1.67384,-1.56621 -1.96302,-1.38748 -0.33132,0.20476 0.28228,1.0259 1.04917,1.40406 0.83132,0.40991 0.99542,0.40693 0.91385,-0.0166 z m 31.98492,33.17383 c 1.9462,-0.0853 5.56311,-0.12934 8.03758,-0.0977 2.47447,0.0317 4.49903,0.0143 4.49903,-0.0389 0,-0.1638 -1.59534,-2.74501 -3.35785,-5.43291 -0.92525,-1.41103 -2.42542,-4.04979 -3.3337,-5.86389 -0.90829,-1.8141 -1.94152,-3.75333 -2.29608,-4.30939 -0.35454,-0.55606 -0.9846,-1.69345 -1.40014,-2.52753 -0.41553,-0.8341 -1.14447,-2.15348 -1.61986,-2.93195 -0.47539,-0.77849 -1.34403,-2.32535 -1.9303,-3.43746 -0.58626,-1.11213 -1.19325,-2.16569 -1.34884,-2.34127 -0.15559,-0.17557 -0.28289,-0.46369 -0.28289,-0.64027 0,-0.39405 -1.56176,-3.46147 -3.0118,-5.91541 -0.59144,-1.00091 -1.25234,-2.26736 -1.46867,-2.81433 -0.21635,-0.54698 -0.55736,-1.22941 -0.75784,-1.51653 -0.20048,-0.28711 -1.02524,-1.7959 -1.83283,-3.35287 -0.80757,-1.55697 -1.59111,-3.05832 -1.74116,-3.33635 -0.15007,-0.27803 -0.38975,-0.74795 -0.5326,-1.04427 -0.14287,-0.29631 -0.86169,-1.61569 -1.59735,-2.93194 -0.73567,-1.31627 -1.62852,-2.91425 -1.9841,-3.55111 -0.88659,-1.58792 -1.39189,-1.95366 -2.52307,-1.82616 -0.77007,0.0868 -0.97266,0.0268 -1.41919,-0.41963 -0.43536,-0.43535 -0.52088,-0.7063 -0.52088,-1.65025 0,-0.75287 -0.1434,-1.41045 -0.43018,-1.97258 -0.35734,-0.70044 -0.41117,-1.06981 -0.31797,-2.18159 0.08,-0.95354 0.0309,-1.47916 -0.17101,-1.82793 -0.15579,-0.26925 -0.42078,-0.77903 -0.58889,-1.13287 -0.16812,-0.35384 -0.39976,-0.70149 -0.51477,-0.77258 -0.27877,-0.17229 -1.11759,-1.86763 -1.30036,-2.62816 -0.0802,-0.33363 -0.26091,-0.74309 -0.40161,-0.90991 -0.14071,-0.16682 -0.77937,-1.1904 -1.41925,-2.27462 -0.63987,-1.08422 -1.2344,-1.92745 -1.32117,-1.87382 -0.0868,0.0536 -0.26059,0.50593 -0.3863,1.00512 -0.46617,1.85133 -2.99488,7.20682 -5.85441,12.3989 -1.08574,1.97138 -2.83394,5.29129 -3.88488,7.37758 l -1.91081,3.79324 0.43333,0.75634 c 0.23833,0.41598 0.76525,1.02548 1.17095,1.35445 0.68985,0.55938 0.85281,0.59867 2.51556,0.6066 1.63377,0.008 1.84798,0.0571 2.64201,0.60706 0.83585,0.57901 0.86025,0.62659 0.74658,1.45594 -0.10875,0.79335 -0.0688,0.892 0.53365,1.32105 0.47522,0.33837 1.04979,0.49627 2.12643,0.58434 1.76534,0.14438 2.90402,0.8217 3.64999,2.1711 0.3077,0.55663 0.87266,1.11138 1.61622,1.58703 0.62874,0.40221 1.61468,1.10497 2.19098,1.56171 0.5763,0.45674 1.4325,1.0579 1.9027,1.33594 0.47018,0.27803 1.22872,1.00596 1.68561,1.61763 0.45691,0.61166 1.05717,1.35452 1.33395,1.6508 0.27678,0.29629 0.88371,0.97871 1.34875,1.51653 0.46504,0.5378 1.24957,1.43279 1.74341,1.98885 0.49385,0.55605 1.17884,1.51146 1.52222,2.12313 0.34338,0.61166 0.96085,1.42881 1.37216,1.81588 0.41131,0.38706 0.92033,1.09368 1.13115,1.57026 0.36079,0.81563 0.36481,0.93872 0.0683,2.09593 -0.25372,0.99042 -0.27367,1.48787 -0.10258,2.55886 0.1168,0.73119 0.24866,1.38813 0.29298,1.45986 0.0444,0.0717 0.16859,0.9904 0.27613,2.0415 0.10859,1.06141 0.43167,2.58382 0.72669,3.42419 0.3991,1.13691 0.55861,2.06606 0.64159,3.73734 l 0.11044,2.22423 -0.71714,1.01101 c -0.80735,1.13818 -1.13542,1.79959 -1.19648,2.41229 -0.0686,0.68756 1.16525,0.74001 9.15854,0.38937 z m -9.35792,-4.16652 c 0.10735,-0.13902 0.17572,-0.52573 0.15195,-0.85937 -0.0237,-0.33364 -0.0549,-1.03673 -0.0694,-1.56242 -0.0216,-0.79295 -0.11638,-1.01497 -0.5561,-1.30308 -0.50524,-0.33105 -0.54305,-0.32946 -0.80881,0.034 -0.15333,0.2097 -0.2788,0.64747 -0.2788,0.97282 0,0.49199 0.0681,0.57375 0.40442,0.48579 0.49411,-0.12922 0.53518,0.27762 0.0957,0.94832 -0.59039,0.90105 0.41608,2.11908 1.06093,1.28396 z m -0.14564,-5.30784 c 0,-0.74092 -0.15939,-0.87185 -0.56616,-0.46508 -0.40691,0.4069 -0.30126,1.17278 0.16175,1.17278 0.32738,0 0.40441,-0.13479 0.40441,-0.7077 z m -1.09567,-9.29494 c 0.0627,-0.24997 -0.0188,-0.77241 -0.1811,-1.16096 -0.16236,-0.38857 -0.36003,-1.09026 -0.43927,-1.55933 -0.0792,-0.46906 -0.2579,-0.89651 -0.397,-0.94989 -0.1391,-0.0535 -0.57913,0.22917 -0.97783,0.62787 l -0.72492,0.72493 0.293,0.95328 c 0.20299,0.66035 0.51467,1.12026 1.01435,1.49671 0.79627,0.59989 1.23938,0.55831 1.41277,-0.13261 z m -7.75703,-12.28732 c -0.41927,-0.71678 -2.17808,-2.05418 -2.46678,-1.87575 -0.61188,0.37817 0.55651,2.35553 1.67626,2.83693 0.56539,0.24306 0.67566,0.23752 0.89162,-0.0449 0.19779,-0.25857 0.17783,-0.4395 -0.1011,-0.91635 z m -7.52578,-5.70551 c 0,-0.16148 -0.55082,-0.61645 -1.22405,-1.01102 -1.39516,-0.81769 -1.40459,-0.82052 -1.40459,-0.42335 0,0.37788 1.76056,1.72799 2.25332,1.72799 0.20643,0 0.37532,-0.13213 0.37532,-0.29362 z m -13.05146,-3.33089 c 0.20082,-0.32496 -0.34131,-1.22837 -0.73716,-1.22837 -0.53965,0 -0.67943,0.55252 -0.25769,1.01855 0.38448,0.42484 0.80689,0.51393 0.99485,0.20982 z m -1.13925,-2.49007 c -0.0355,-0.2491 -0.22385,-0.48324 -0.41847,-0.52034 -0.40562,-0.0773 -0.47345,0.36835 -0.11122,0.73058 0.37654,0.37654 0.60071,0.28756 0.52969,-0.21024 z m 6.86186,-0.002 c -0.0458,-0.13902 -0.3036,-0.27818 -0.57291,-0.30925 -0.47419,-0.0547 -0.47727,-0.0467 -0.0972,0.25275 0.47529,0.37447 0.78336,0.40044 0.67009,0.0564 z m -6.10286,-8.38458 c 0.57129,-0.57131 1.53826,-2.77475 1.25863,-2.86808 -0.27123,-0.0905 -1.45239,1.18801 -1.91295,2.07065 -0.49715,0.9528 -0.0481,1.49994 0.65432,0.79743 z m 21.57247,-4.61517 c 0.3047,-0.28254 0.554,-0.5948 0.554,-0.69389 0,-0.0991 0.44568,-0.60219 0.9904,-1.11793 1.21427,-1.14967 2.46517,-3.51343 2.59956,-4.91231 0.14905,-1.55103 -1.06042,-3.91038 -2.34513,-4.57473 -1.81745,-0.93985 -4.5059,-1.60534 -5.00649,-1.2393 -0.29771,0.21771 -0.26667,0.38282 0.32755,1.74274 0.36103,0.82623 0.95899,1.83936 1.32879,2.2514 0.85164,0.94888 1.45159,2.12022 1.61756,3.15812 0.0995,0.62208 -0.0167,1.23259 -0.50016,2.62905 -0.66086,1.90876 -0.81695,3.27053 -0.37489,3.27053 0.14014,0 0.50411,-0.23115 0.80881,-0.51368 z"
       style="display:inline;fill:#fafafa;fill-opacity:1;stroke-width:0.202203" />
  </g>
</svg>
